[gd_scene load_steps=8 format=3 uid="uid://ggt7odqdclt2"]

[ext_resource type="Script" path="res://bullet.gd" id="1_gyil8"]
[ext_resource type="Texture2D" uid="uid://cxlredk75cc7b" path="res://art/bullet1.png" id="2_xveig"]
[ext_resource type="Texture2D" uid="uid://c0jt4a4ahe2cy" path="res://art/bullet2.png" id="3_oc821"]
[ext_resource type="Texture2D" uid="uid://b22no51moa2h0" path="res://art/bullet3.png" id="4_f3bq7"]
[ext_resource type="Texture2D" uid="uid://bg5ythruar4kl" path="res://art/bullet4.png" id="5_ndsqf"]

[sub_resource type="SpriteFrames" id="SpriteFrames_hwbsa"]
animations = [{
"frames": [{
"duration": 1.0,
"texture": ExtResource("2_xveig")
}, {
"duration": 1.0,
"texture": ExtResource("3_oc821")
}, {
"duration": 1.0,
"texture": ExtResource("4_f3bq7")
}, {
"duration": 1.0,
"texture": ExtResource("5_ndsqf")
}],
"loop": false,
"name": &"main",
"speed": 3.0
}]

[sub_resource type="CapsuleShape2D" id="CapsuleShape2D_lsutt"]
radius = 5.0
height = 18.0

[node name="Bullet" type="RigidBody2D" groups=["mobs"]]
collision_mask = 0
gravity_scale = 0.0
script = ExtResource("1_gyil8")
metadata/_edit_group_ = true

[node name="AnimatedSprite2D" type="AnimatedSprite2D" parent="."]
scale = Vector2(0.75, 0.75)
sprite_frames = SubResource("SpriteFrames_hwbsa")
animation = &"main"
autoplay = "main"
frame = 3
frame_progress = 1.0

[node name="CollisionShape2D" type="CollisionShape2D" parent="."]
rotation = 1.5708
shape = SubResource("CapsuleShape2D_lsutt")

[node name="VisibleOnScreenNotifier2D" type="VisibleOnScreenNotifier2D" parent="."]

[connection signal="screen_exited" from="VisibleOnScreenNotifier2D" to="." method="_on_visible_on_screen_notifier_2d_screen_exited"]
